"resolution","random","useWeight","modularity","components"
"0,0","false","true","-0,00185","782"
"0,0","false","false","-0,00233","782"
"0,1","false","true","0,08763","174"
"0,1","false","false","0,08508","176"
"0,2","false","true","0,15988","78"
"0,2","false","false","0,15330","80"
"0,3","false","true","0,22388","39"
"0,3","false","false","0,21659","40"
"0,4","false","true","0,27368","23"
"0,4","false","false","0,26140","23"
"0,5","false","true","0,31136","13"
"0,5","false","false","0,29481","13"
"0,6","false","true","0,32762","10"
"0,6","false","false","0,30784","10"
"0,7","false","true","0,35934","7"
"0,7","false","false","0,32886","7"
"0,8","false","true","0,36823","6"
"0,8","false","false","0,33916","6"
"0,9","false","true","0,37162","6"
"0,9","false","false","0,34097","6"
"1,0","false","true","0,37447","5"
"1,0","false","false","0,32797","5"
"1,1","false","true","0,36280","5"
"1,1","false","false","0,31701","5"
"1,2","false","true","0,36328","5"
"1,2","false","false","0,31535","5"
"1,3","false","true","0,36497","5"
"1,3","false","false","0,32028","5"
"1,4","false","true","0,35416","4"
"1,4","false","false","0,30346","4"
"1,5","false","true","0,30438","3"
"1,5","false","false","0,22413","3"
"1,6","false","true","0,30545","3"
"1,6","false","false","0,22579","3"
"1,7","false","true","0,32153","3"
"1,7","false","false","0,24694","3"
"1,8","false","true","0,32226","3"
"1,8","false","false","0,24752","3"
"1,9","false","true","0,32126","3"
"1,9","false","false","0,24569","3"
"2,0","false","true","0,32145","3"
"2,0","false","false","0,24649","3"
"2,1","false","true","0,32205","3"
"2,1","false","false","0,24737","3"
"2,2","false","true","0,32025","3"
"2,2","false","false","0,24591","3"
"2,3","false","true","0,31536","3"
"2,3","false","false","0,24086","3"
"2,4","false","true","0,31536","3"
"2,4","false","false","0,24086","3"
"2,5","false","true","0,31407","3"
"2,5","false","false","0,23964","3"
"2,6","false","true","0,30028","3"
"2,6","false","false","0,22603","3"
"2,7","false","true","0,30028","3"
"2,7","false","false","0,22603","3"
"2,8","false","true","0,29298","3"
"2,8","false","false","0,21851","3"
"2,9","false","true","0,00000","2"
"2,9","false","false","-0,15351","2"
"3,0","false","true","0,00000","2"
"3,0","false","false","-0,15351","2"
"3,1","false","true","0,00000","2"
"3,1","false","false","-0,15351","2"
"3,2","false","true","0,00000","2"
"3,2","false","false","-0,15351","2"
"3,3","false","true","0,00000","2"
"3,3","false","false","-0,15351","2"
"3,4","false","true","0,00000","2"
"3,4","false","false","-0,15351","2"
"3,5","false","true","0,00000","2"
"3,5","false","false","-0,15351","2"
"3,6","false","true","0,00000","2"
"3,6","false","false","-0,15351","2"
"3,7","false","true","0,00000","2"
"3,7","false","false","-0,15351","2"
"3,8","false","true","0,00000","2"
"3,8","false","false","-0,15351","2"
"3,9","false","true","0,00000","2"
"3,9","false","false","-0,15351","2"
"4,0","false","true","0,00000","2"
"4,0","false","false","-0,15351","2"
"4,1","false","true","0,00000","2"
"4,1","false","false","-0,15351","2"
"4,2","false","true","0,00000","2"
"4,2","false","false","-0,15351","2"
"4,3","false","true","0,00000","2"
"4,3","false","false","-0,15351","2"
"4,4","false","true","0,00000","2"
"4,4","false","false","-0,15351","2"
"4,5","false","true","0,00000","2"
"4,5","false","false","-0,15351","2"
"4,6","false","true","0,00000","2"
"4,6","false","false","-0,15351","2"
"4,7","false","true","0,00000","2"
"4,7","false","false","-0,15351","2"
"4,8","false","true","0,00000","2"
"4,8","false","false","-0,15351","2"
"4,9","false","true","0,00000","2"
"4,9","false","false","-0,15351","2"
"5,0","false","true","0,00000","2"
"5,0","false","false","-0,15351","2"
